<Svg width="22" height="16" viewBox="0 0 22 16" fill="none" xmlns="http://www.w3.org/2000/svg">
<Rect x="0.5" y="0.5" width="21" height="15" stroke="#5C5C5C"/>
<Path d="M1 1L11 11L21 1" stroke="#5C5C5C"/>
</Svg>
